<svg xmlns="http://www.w3.org/2000/svg" xmlns:xlink="http://www.w3.org/1999/xlink" width="1284" height="413" viewBox="0 0 1284 413">
  <defs>
    <clipPath id="clip-path">
      <rect id="Rectangle_616" data-name="Rectangle 616" width="1284" height="413" rx="8" transform="translate(318 7941)" fill="#272e39"/>
    </clipPath>
  </defs>
  <g id="Hexes" transform="translate(-318 -7941)" clip-path="url(#clip-path)">
    <g id="Hex2" transform="translate(-1020.877 5157.5)">
      <path id="Polygon_110" data-name="Polygon 110" d="M245.136,0a32,32,0,0,1,27.723,16.018l69.428,120.436a32,32,0,0,1,0,31.963L272.859,288.854a32,32,0,0,1-27.723,16.018H106.364a32,32,0,0,1-27.723-16.018L9.213,168.418a32,32,0,0,1,0-31.963L78.641,16.018A32,32,0,0,1,106.364,0Z" transform="translate(1583.75 2955) rotate(90)" fill="#272e39" opacity="0.5"/>
      <path id="Polygon_111" data-name="Polygon 111" d="M156.724,0a32,32,0,0,1,27.723,16.018L224.4,85.332a32,32,0,0,1,0,31.963l-39.957,69.314a32,32,0,0,1-27.723,16.018H76.894A32,32,0,0,1,49.17,186.609L9.213,117.3a32,32,0,0,1,0-31.963L49.17,16.018A32,32,0,0,1,76.894,0Z" transform="translate(1633.941 2906.806) rotate(90)" fill="#6e798b" opacity="0.5"/>
    </g>
  </g>
</svg>
