<svg xmlns="http://www.w3.org/2000/svg" width="35" height="40" viewBox="0 0 35 40">
  <g id="tick" transform="translate(-1246 -6133)">
    <path id="Polygon_32" data-name="Polygon 32" d="M27.679,0a4,4,0,0,1,3.473,2.015l7.714,13.5a4,4,0,0,1,0,3.969l-7.714,13.5A4,4,0,0,1,27.679,35H12.321a4,4,0,0,1-3.473-2.015l-7.714-13.5a4,4,0,0,1,0-3.969l7.714-13.5A4,4,0,0,1,12.321,0Z" transform="translate(1281 6133) rotate(90)" fill="#00b8f1"/>
    <g id="Layer_2" data-name="Layer 2" transform="translate(1253 6142.5)">
      <g id="checkmark-square-2">
        <rect id="Rectangle_575" data-name="Rectangle 575" width="21" height="21" transform="translate(21 21) rotate(180)" fill="#fff" opacity="0"/>
        <path id="Path_255" data-name="Path 255" d="M16.125,3H5.625A2.625,2.625,0,0,0,3,5.625v10.5A2.625,2.625,0,0,0,5.625,18.75h10.5a2.625,2.625,0,0,0,2.625-2.625V5.625A2.625,2.625,0,0,0,16.125,3ZM17,16.125a.875.875,0,0,1-.875.875H5.625a.875.875,0,0,1-.875-.875V5.625a.875.875,0,0,1,.875-.875h10.5A.875.875,0,0,1,17,5.625Z" transform="translate(-0.375 -0.375)" fill="#fff"/>
        <path id="Path_256" data-name="Path 256" d="M13.8,8.34l-3.307,4.375L9.066,10.869a.876.876,0,1,0-1.382,1.076L9.81,14.667a.878.878,0,0,0,1.382-.009l4-5.25a.88.88,0,0,0-1.4-1.068Z" transform="translate(-0.937 -0.999)" fill="#fff"/>
      </g>
    </g>
  </g>
</svg>
