<svg xmlns="http://www.w3.org/2000/svg" width="35" height="40" viewBox="0 0 35 40">
  <g id="cloud" transform="translate(-358 -2808)">
    <path id="Polygon_42" data-name="Polygon 42" d="M27.679,0a4,4,0,0,1,3.473,2.015l7.714,13.5a4,4,0,0,1,0,3.969l-7.714,13.5A4,4,0,0,1,27.679,35H12.321a4,4,0,0,1-3.473-2.015l-7.714-13.5a4,4,0,0,1,0-3.969l7.714-13.5A4,4,0,0,1,12.321,0Z" transform="translate(393 2808) rotate(90)" fill="#00b8f1"/>
    <g id="cloud-fill" transform="translate(365 2817.5)">
      <path id="Path_259" data-name="Path 259" d="M0,0H21V21H0Z" fill="none"/>
      <path id="Path_260" data-name="Path 260" d="M15,6.374a7,7,0,0,0-6.557,4.542l1.64.615A5.25,5.25,0,1,1,15,18.624H6.249a5.25,5.25,0,0,1-1.743-10.2A6.125,6.125,0,0,1,16.544,6.545,7.024,7.024,0,0,0,15,6.374Z" transform="translate(-0.124 -0.249)" fill="#fff"/>
    </g>
  </g>
</svg>
