<svg xmlns="http://www.w3.org/2000/svg" width="35" height="38.851" viewBox="0 0 35 38.851">
    <path d="M1372 7469.7a4.16 4.16 0 0 1-2 3.5l-13.5 7.7a4.07 4.07 0 0 1-4 0l-13.5-7.7a4.034 4.034 0 0 1-2-3.5v-15.4a4.16 4.16 0 0 1 2-3.5l13.5-7.7a4.07 4.07 0 0 1 4 0l13.5 7.7a4.034 4.034 0 0 1 2 3.5z" transform="translate(-1337 -7442.575)" style="fill:#00b8f1"/>
    <g data-name="Group 35">
        <path data-name="Path 3" d="M163.952 301.155a3.967 3.967 0 0 1 2.681 3.954 4.316 4.316 0 0 1-4.454 4.317 4.418 4.418 0 0 1-4.635-4.317 8.031 8.031 0 0 1 1.772-4.681l2.863-4.044h3.454zm10.907 0a3.967 3.967 0 0 1 2.681 3.954 4.316 4.316 0 0 1-4.453 4.317 4.418 4.418 0 0 1-4.635-4.317 8.031 8.031 0 0 1 1.772-4.681l2.863-4.044h3.453z" transform="translate(-150.042 -283.479)" style="fill:#fff"/>
    </g>
</svg>
