<svg xmlns="http://www.w3.org/2000/svg" width="35" height="40" viewBox="0 0 35 40">
  <g id="Video" transform="translate(-1246 -6229)">
    <path id="Polygon_45" data-name="Polygon 45" d="M27.679,0a4,4,0,0,1,3.473,2.015l7.714,13.5a4,4,0,0,1,0,3.969l-7.714,13.5A4,4,0,0,1,27.679,35H12.321a4,4,0,0,1-3.473-2.015l-7.714-13.5a4,4,0,0,1,0-3.969l7.714-13.5A4,4,0,0,1,12.321,0Z" transform="translate(1281 6229) rotate(90)" fill="#f89c33"/>
    <g id="play-circle-fill" transform="translate(1253 6238.5)">
      <path id="Path_230" data-name="Path 230" d="M0,0H21V21H0Z" fill="none"/>
      <path id="Path_231" data-name="Path 231" d="M10.5,19A8.5,8.5,0,1,1,19,10.5,8.5,8.5,0,0,1,10.5,19ZM9.329,7.453a.34.34,0,0,0-.529.282v5.53a.34.34,0,0,0,.529.282l4.147-2.764a.34.34,0,0,0,0-.566L9.328,7.453Z" fill="#fff"/>
    </g>
  </g>
</svg>
